# A sample unsolved puzzle.
# This is the unsolved version of puzzle 03.
# It is rated as medium.
1 8 0 6 0 9 0 5 7
5 0 0 0 0 0 0 0 3
0 0 2 0 8 0 4 0 0
7 0 0 8 4 5 0 0 1
0 0 3 2 0 1 9 0 0
2 0 0 9 6 3 0 0 5
0 0 1 0 5 0 8 0 0
8 0 0 0 0 0 0 0 4
9 4 0 3 0 8 0 7 2
