# An incomplete, invalid puzzle.
# Error likely to be discovered in column 4 with two 8s.
5 0 4 6 7 8 9 1 2
6 7 2 1 9 5 3 0 8
1 9 8 3 0 2 5 6 7
0 5 9 7 8 1 4 2 3
4 2 6 0 5 3 7 9 1
7 1 3 9 2 4 8 5 6
9 6 0 5 3 7 2 8 4
2 8 7 4 1 9 0 3 5
3 4 5 2 8 0 1 7 9
